{"hash":"0bdd4e96f80029e743f94b39a1bf837e5049d0f0","data":{"metadata":{"siteName":"devlog.akasai","siteDescription":"","nickname":"akasai","name":"Sungjun.Kim","mail":"tjdwns2020@gmail.com","description":"👨‍💻 Jr. Backend Developer","location":"Seoul/Korea","skills":["Node.js","Typescript","GraphQL","Serverless","PostgreSQL","Kubernetes"],"link":{"github":"https://github.com/akasai","hackerrank":"https://www.hackerrank.com/ksj21c","leetcode":"https://leetcode.com/akasai","instagram":"https://www.instagram.com/ksj21c"}},"allPost":{"totalCount":33,"pageInfo":{"totalPages":4,"currentPage":4},"edges":[{"node":{"id":"1857ad60b98a4034beb5d79d0d97d933","title":"[HackerRank] The BomberMan Game","category":"알고리즘","series":0,"timeToRead":1,"description":"HackerRank / Problem Solving / Implementation","tags":[{"title":"Algorithm"},{"title":"HackerRank"},{"title":"Javascript"}],"date":"9월 17 목, 2020","path":"/hr-bomberman-game/"}},{"node":{"id":"266a61aabb2ee34be15f00a47164bb41","title":"파일에 접근제한 부여하기 - Presigned URL","category":"개발/인프라","series":0,"timeToRead":2,"description":"Presigned-URL을 사용하여 한된 시간동안 접근권한을 부여하는 한다.","tags":[{"title":"AWS"},{"title":"S3"},{"title":"CDN"}],"date":"9월 16 수, 2020","path":"/about-presigned-url/"}},{"node":{"id":"a2c274881a87f0327ca68a93149dc418","title":"Local 저장소와 Github 연결하기","category":"개발/기타","series":0,"timeToRead":1,"description":"Git 명령어를 정리해봅니다.","tags":[{"title":"Github"},{"title":"Git"}],"date":"9월 16 수, 2020","path":"/connect-to-github/"}}]}},"context":{}}