{"hash":"a0c6b029a900f19dcb07bea22be410e69297ddf3","data":{"metadata":{"siteName":"devlog.akasai","siteDescription":"","nickname":"akasai","name":"Sungjun.Kim","mail":"tjdwns2020@gmail.com","description":"👨‍💻 Jr. Backend Developer","location":"Seoul/Korea","skills":["Node.js","Typescript","GraphQL","Serverless","PostgreSQL","Kubernetes"],"link":{"github":"https://github.com/akasai","hackerrank":"https://www.hackerrank.com/ksj21c","leetcode":"https://leetcode.com/akasai","instagram":"https://www.instagram.com/ksj21c"}},"allPost":{"totalCount":25,"pageInfo":{"totalPages":3,"currentPage":2},"edges":[{"node":{"id":"aed8f07e17172b7b38fc5c2b98047181","title":"[Leetcode] Remove Element","category":"알고리즘","series":0,"timeToRead":1,"description":"Leetcode / Problem Solving","tags":[{"title":"Algorithm"},{"title":"Leetcode"},{"title":"Typescript"}],"date":"9월 28 월, 2020","path":"/hr-remove-element/"}},{"node":{"id":"f7058d378a86e71d34f5e42debe41307","title":"[Leetcode] Remove Duplicates from Sorted Array","category":"알고리즘","series":0,"timeToRead":1,"description":"Leetcode / Problem Solving","tags":[{"title":"Algorithm"},{"title":"Leetcode"},{"title":"Typescript"}],"date":"9월 28 월, 2020","path":"/hr-remove-duplicates/"}},{"node":{"id":"189b499966975d60aa734d21d228c631","title":"[Leetcode] Move Zeros","category":"알고리즘","series":0,"timeToRead":1,"description":"Leetcode / Problem Solving","tags":[{"title":"Algorithm"},{"title":"Leetcode"},{"title":"Typescript"}],"date":"9월 28 월, 2020","path":"/hr-move-zeroes/"}},{"node":{"id":"a7b5c8337cbedc9d95d74096cbcb5a6e","title":"[HackerRank] Absolute Permutation","category":"알고리즘","series":0,"timeToRead":1,"description":"HackerRank / Problem Solving / Implementation","tags":[{"title":"Algorithm"},{"title":"HackerRank"},{"title":"Javascript"}],"date":"9월 28 월, 2020","path":"/hr-absolute-permutation/"}},{"node":{"id":"a05b976181e165249a70057e7024affa","title":"async/await 병목현상 줄여보기","category":"개발/기초","series":0,"timeToRead":2,"description":"async/await를 이용한 Promise함수의 병목을 줄여보자","tags":[{"title":"Node.js"},{"title":"Javascript"},{"title":"Promise"},{"title":"Async"},{"title":"Await"},{"title":"ES6"}],"date":"9월 21 월, 2020","path":"/hr-await-bottle-neck/"}},{"node":{"id":"be84a3ee3f14c112674be27303277bbc","title":"[HackerRank] Modified Kaprekar Numbers","category":"알고리즘","series":0,"timeToRead":1,"description":"HackerRank / Problem Solving / Implementation","tags":[{"title":"Algorithm"},{"title":"HackerRank"},{"title":"Javascript"}],"date":"9월 20 일, 2020","path":"/hr-modified-kaprekar-numbers/"}},{"node":{"id":"85c819899474e20a80076644b131e3f3","title":"[HackerRank] Extra Long Factorials","category":"알고리즘","series":0,"timeToRead":1,"description":"HackerRank / Problem Solving / Implementation","tags":[{"title":"Algorithm"},{"title":"HackerRank"},{"title":"Javascript"}],"date":"9월 20 일, 2020","path":"/hr-extra-long-factorials/"}},{"node":{"id":"35f0802c4e3e1887dd9dfdd95644717f","title":"[HackerRank] Equalize the Array","category":"알고리즘","series":0,"timeToRead":1,"description":"HackerRank / Problem Solving / Implementation","tags":[{"title":"Algorithm"},{"title":"HackerRank"},{"title":"Javascript"}],"date":"9월 20 일, 2020","path":"/hr-equalize-the-array/"}},{"node":{"id":"4f15c8bb675b62485608cd3cff593589","title":"[Typescript] solid하게 SOLID","category":"개발/기초","series":2,"timeToRead":6,"description":"OOP의 SOLID이론을 Typescript로 구현해봅니다.","tags":[{"title":"Typescript"},{"title":"OOP"},{"title":"SOLID"},{"title":"객체지향"}],"date":"9월 19 토, 2020","path":"/ts-solid-2/"}},{"node":{"id":"63c07b2f06adafb9a53c8cecdc065746","title":"[Typescript] solid하게 SOLID","category":"개발/기초","series":1,"timeToRead":2,"description":"OOP의 SOLID이론을 Typescript로 구현해봅니다.","tags":[{"title":"Typescript"},{"title":"OOP"},{"title":"SOLID"},{"title":"객체지향"}],"date":"9월 18 금, 2020","path":"/ts-solid-1/"}}]}},"context":{}}