{"hash":"0bdd4e96f80029e743f94b39a1bf837e5049d0f0","data":{"metadata":{"siteName":"devlog.akasai","siteDescription":"","nickname":"akasai","name":"Sungjun.Kim","mail":"tjdwns2020@gmail.com","description":"👨‍💻 Jr. Backend Developer","location":"Seoul/Korea","skills":["Node.js","Typescript","GraphQL","Serverless","PostgreSQL","Kubernetes"],"link":{"github":"https://github.com/akasai","hackerrank":"https://www.hackerrank.com/ksj21c","leetcode":"https://leetcode.com/akasai","instagram":"https://www.instagram.com/ksj21c"}},"allPost":{"totalCount":33,"pageInfo":{"totalPages":4,"currentPage":1},"edges":[{"node":{"id":"df00eb7e328f0e9c23f1b35c9a4aa0f4","title":"도커 용어 정리","category":"인프라/Docker","series":0,"timeToRead":1,"description":"도커(Docker) 용어를 정리해 봅니다.","tags":[{"title":"도커"},{"title":"Docker"},{"title":"면접"},{"title":"면접질문"}],"date":"11월 11 수, 2020","path":"/intro-docker/"}},{"node":{"id":"13aca3a7bc1df0f143813c2200fc03fa","title":"[Typescript] Enum","category":"개발/기초","series":0,"timeToRead":1,"description":"Typescript의 enum에 대하여 간단히 알아봅니다..","tags":[{"title":"Typescript"},{"title":"Enum"}],"date":"10월 28 수, 2020","path":"/typescript-enum/"}},{"node":{"id":"2d71b09aa17963bc36e2461603b49f43","title":"Closure와 Private","category":"개발/기초","series":0,"timeToRead":3,"description":"Javascript의 Clousure와 Typescript의 Private변수를 알아봅니다.","tags":[{"title":"Typescript"},{"title":"Javascript"},{"title":"Closure"},{"title":"Private"}],"date":"10월 24 토, 2020","path":"/closure-and-private/"}},{"node":{"id":"83aae0358a8d835aa76b9ce49d9fb61f","title":"Node.js 동작 원리","category":"개발/Node.js","series":5,"timeToRead":7,"description":"Node.js 싱글스레드에 대하여 알아봅니다.","tags":[{"title":"Node.js"},{"title":"Javascript"},{"title":"V8"},{"title":"Single Thread"},{"title":"싱글스레드"}],"date":"10월 21 수, 2020","path":"/nodejs-5/"}},{"node":{"id":"15144d14dcac37ed2576f5559d767ffa","title":"[Leetcode] Majority Element","category":"알고리즘","series":0,"timeToRead":1,"description":"Leetcode / Problem Solving / Algorithm","tags":[{"title":"Algorithm"},{"title":"Leetcode"},{"title":"Typescript"}],"date":"10월 20 화, 2020","path":"/lc-string-compression/"}},{"node":{"id":"ae343f033ed3dc195a2c3587c261d6e8","title":"[Leetcode] Sliding Window Maximum","category":"알고리즘","series":0,"timeToRead":1,"description":"Leetcode / Problem Solving / Algorithm","tags":[{"title":"Algorithm"},{"title":"Leetcode"},{"title":"Typescript"}],"date":"10월 19 월, 2020","path":"/lc-sliding-window-maximum/"}},{"node":{"id":"6d9f1274c4089583e649a573d689f980","title":"[Leetcode] Count And Say","category":"알고리즘","series":0,"timeToRead":1,"description":"Leetcode / Problem Solving / Algorithm","tags":[{"title":"Algorithm"},{"title":"Leetcode"},{"title":"Typescript"}],"date":"10월 14 수, 2020","path":"/lc-count-and-say/"}},{"node":{"id":"b814bd3c4aa40c14fdf203cf4e6ce4a4","title":"Node.js 동작 원리","category":"개발/Node.js","series":4,"timeToRead":2,"description":"Node.js 싱글스레드에 대하여 알아봅니다.","tags":[{"title":"Node.js"},{"title":"Javascript"},{"title":"V8"},{"title":"Single Thread"},{"title":"싱글스레드"}],"date":"10월 13 화, 2020","path":"/nodejs-4/"}},{"node":{"id":"34dcf250c48aa86a3126a746dd1c9cfe","title":"개발자 로드맵","category":"개발/기타","series":0,"timeToRead":1,"description":"2020 개발자 로드맵 정리","tags":[{"title":"개발자"},{"title":"로드맵"},{"title":"백엔드"},{"title":"Developer"},{"title":"Roadmap"}],"date":"10월 13 화, 2020","path":"/developer-roadmap/"}},{"node":{"id":"6992a7820bf45208e0176af1090c9fda","title":"[Leetcode] Add Two Numbers","category":"알고리즘","series":0,"timeToRead":1,"description":"Leetcode / Problem Solving / Algorithm","tags":[{"title":"Algorithm"},{"title":"Leetcode"},{"title":"Typescript"}],"date":"10월 13 화, 2020","path":"/lc-add-two-numbers/"}}]}},"context":{}}