{"hash":"ec669f94d9f248b3cc61e871cabb30692ae745a4","data":{"metadata":{"siteName":"devlog.akasai","siteDescription":"","nickname":"akasai","name":"Sungjun.Kim","mail":"tjdwns2020@gmail.com","description":"👨‍💻 Jr. Backend Developer","location":"Seoul/Korea","skills":["Node.js","Typescript","GraphQL","Serverless","PostgreSQL","Kubernetes"],"link":{"github":"https://github.com/akasai","hackerrank":"https://www.hackerrank.com/ksj21c","leetcode":"https://leetcode.com/akasai","instagram":"https://www.instagram.com/ksj21c"}},"allPost":{"totalCount":22,"pageInfo":{"totalPages":3,"currentPage":3},"edges":[{"node":{"id":"7316a42958b47584773d12a330636791","title":"파일에 접근제한 부여하기 - Presigned URL","category":"개발/인프라","series":0,"timeToRead":2,"description":"Presigned-URL을 사용하여 한된 시간동안 접근권한을 부여하는 한다.","tags":[{"title":"AWS"},{"title":"S3"},{"title":"CDN"}],"date":"9월 16 수, 2020","path":"/about-presigned-url/"}},{"node":{"id":"48e9c680232ee36c8fee10c423c2f038","title":"Local 저장소와 Github 연결하기","category":"개발/기타","series":0,"timeToRead":1,"description":"Git 명령어를 정리해봅니다.","tags":[{"title":"Github"},{"title":"Git"}],"date":"9월 16 수, 2020","path":"/connect-to-github/"}}]}},"context":{}}