{"hash":"20d2add9945f9dd6c93df8f538681a8801451377","data":{"metadata":{"siteName":"devlog.akasai","siteDescription":"","nickname":"akasai","name":"Sungjun.Kim","mail":"tjdwns2020@gmail.com","description":"👨‍💻 Jr. Backend Developer","location":"Seoul/Korea","skills":["Node.js","Typescript","GraphQL","Serverless","PostgreSQL","Kubernetes"],"link":{"github":"https://github.com/akasai","hackerrank":"https://www.hackerrank.com/ksj21c","leetcode":"https://leetcode.com/akasai","instagram":"https://www.instagram.com/ksj21c"}},"allPost":{"totalCount":41,"pageInfo":{"totalPages":5,"currentPage":5},"edges":[{"node":{"id":"a2c274881a87f0327ca68a93149dc418","path":"/connect-to-github/","category":"기타","sub_category":"Git","title":"Local 저장소와 Github 연결하기","series_name":"","series_num":0,"description":"Git 명령어를 정리해봅니다.","date":"9월 16 수, 2020","timeToRead":1,"tags":[{"title":"Github"},{"title":"Git"}]}}]}},"context":{}}